<?xml version="1.0" encoding="UTF-8"?>
<svg width="56px" height="56px" viewBox="0 0 56 56" version="1.1" xmlns="http://www.w3.org/2000/svg" xmlns:xlink="http://www.w3.org/1999/xlink">
    <!-- Generator: Sketch 60 (88103) - https://sketch.com -->
    <title>agencies-icon</title>
    <desc>Created with Sketch.</desc>
    <g id="UI" stroke="none" stroke-width="1" fill="none" fill-rule="evenodd">
        <g id="09_Lander" transform="translate(-918.000000, -3486.000000)" fill-rule="nonzero">
            <g id="Group-7" transform="translate(918.000000, 3486.000000)">
                <g id="Group-6">
                    <g id="agencies-icon">
                        <circle id="Oval" fill="#CE5CE2" cx="28" cy="28" r="28"></circle>
                        <g id="branding/logo-secondary" transform="translate(11.000000, 12.000000)" fill="#FFFFFF">
                            <g id="Orbs-Copy-2">
                                <circle id="Oval" opacity="0.900000036" cx="17" cy="4" r="4"></circle>
                                <circle id="Oval" cx="17" cy="17" r="4"></circle>
                                <circle id="Oval" opacity="0.900000036" cx="17" cy="30" r="4"></circle>
                                <circle id="Oval" opacity="0.900000036" transform="translate(30.000000, 17.000000) rotate(90.000000) translate(-30.000000, -17.000000) " cx="30" cy="17" r="4"></circle>
                                <circle id="Oval" opacity="0.900000036" transform="translate(4.000000, 17.000000) rotate(90.000000) translate(-4.000000, -17.000000) " cx="4" cy="17" r="4"></circle>
                                <circle id="Oval-2" opacity="0.800000012" cx="5.5" cy="5.5" r="2.5"></circle>
                                <circle id="Oval-2" opacity="0.600000024" cx="10.5" cy="10.5" r="2.5"></circle>
                                <circle id="Oval-2" opacity="0.800000012" cx="28.5" cy="28.5" r="2.5"></circle>
                                <circle id="Oval-2" opacity="0.600000024" cx="23.5" cy="23.5" r="2.5"></circle>
                                <circle id="Oval-2" opacity="0.800000012" transform="translate(28.500000, 5.500000) scale(-1, 1) translate(-28.500000, -5.500000) " cx="28.5" cy="5.5" r="2.5"></circle>
                                <circle id="Oval-2" opacity="0.600000024" transform="translate(23.500000, 10.500000) scale(-1, 1) translate(-23.500000, -10.500000) " cx="23.5" cy="10.5" r="2.5"></circle>
                                <circle id="Oval-2" opacity="0.800000012" transform="translate(5.500000, 28.500000) scale(-1, 1) translate(-5.500000, -28.500000) " cx="5.5" cy="28.5" r="2.5"></circle>
                                <circle id="Oval-2" opacity="0.600000024" transform="translate(10.500000, 23.500000) scale(-1, 1) translate(-10.500000, -23.500000) " cx="10.5" cy="23.5" r="2.5"></circle>
                            </g>
                        </g>
                    </g>
                </g>
            </g>
        </g>
    </g>
</svg>