<?xml version="1.0" encoding="UTF-8"?>
<svg width="25px" height="25px" viewBox="0 0 25 25" version="1.1" xmlns="http://www.w3.org/2000/svg" xmlns:xlink="http://www.w3.org/1999/xlink">
    <!-- Generator: Sketch 53.2 (72643) - https://sketchapp.com -->
    <title>Check</title>
    <desc>Created with Sketch.</desc>
    <g id="UI" stroke="none" stroke-width="1" fill="none" fill-rule="evenodd">
        <g id="07_Pricing" transform="translate(-773.000000, -1175.000000)">
            <g id="Pricing-table" transform="translate(150.000000, 590.000000)">
                <g id="Column-Copy" transform="translate(562.000000, 76.000000)">
                    <g id="Check" transform="translate(61.000000, 509.000000)">
                        <circle id="Oval" fill="#0096C4" fill-rule="evenodd" cx="12.5" cy="12.5" r="12.5"></circle>
                        <polyline id="Line" stroke="#FFFFFF" stroke-width="2" stroke-linecap="round" stroke-linejoin="round" points="6 12.0112285 10.636149 17 19 8"></polyline>
                    </g>
                </g>
            </g>
        </g>
    </g>
</svg>