<?xml version="1.0" encoding="UTF-8"?>
<svg width="57px" height="60px" viewBox="0 0 57 60" version="1.1" xmlns="http://www.w3.org/2000/svg" xmlns:xlink="http://www.w3.org/1999/xlink">
    <!-- Generator: Sketch 53.2 (72643) - https://sketchapp.com -->
    <title>icons8-search</title>
    <desc>Created with Sketch.</desc>
    <defs>
        <linearGradient x1="5.03864447%" y1="0%" x2="96.759808%" y2="100.999999%" id="linearGradient-1">
            <stop stop-color="#3023AE" offset="0%"></stop>
            <stop stop-color="#C86DD7" offset="100%"></stop>
        </linearGradient>
    </defs>
    <g id="UI" stroke="none" stroke-width="1" fill="none" fill-rule="evenodd">
        <g id="06_About-us" transform="translate(-296.000000, -650.000000)" fill="url(#linearGradient-1)" fill-rule="nonzero">
            <g id="icons8-search" transform="translate(296.000000, 650.000000)">
                <path d="M22.5431348,0 C10.1060794,0 0,10.4145911 0,23.2313167 C0,36.0480424 10.1060794,46.4626335 22.5431348,46.4626335 C27.4640864,46.4626335 32.0120803,44.8291822 35.7209232,42.0640569 L53.166989,60 L56.8965517,56.1565836 L39.6576839,38.3487544 C43.0453707,34.2811395 45.0862697,29.001779 45.0862697,23.2313167 C45.0862697,10.4145911 34.9801903,0 22.5431348,0 Z M22.5431348,2.73309609 C33.545345,2.73309609 42.4341362,11.8932384 42.4341362,23.2313167 C42.4341362,34.569395 33.545345,43.7295374 22.5431348,43.7295374 C11.5409247,43.7295374 2.65213351,34.569395 2.65213351,23.2313167 C2.65213351,11.8932384 11.5409247,2.73309609 22.5431348,2.73309609 Z" id="Shape"></path>
            </g>
        </g>
    </g>
</svg>